# $FreeBSD: stable/10/share/syscons/fonts/iso02-8x14.fnt 86796 2001-11-22 23:39:06Z ache $
begin 644 iso02-8x14
M````````````````````````````````````````````````````````````
M````````````````````````````````````````````````````````````
M````````````````````````````````````````````````````````````
M````````````````````````````````````````````````````````````
M````````````````````````````````````````````````````````````
M````````````````````````````````````````````````````````````
M````````````````````````````````````````````````````````````
M````````````````````````````````````````````````````````````
M````````````````````````````````````````````````````````````
M````````````````````````````````````````````````````````````
M```````````````````8/#P\&!@`&!@`````9F9F)```````````````;&S^
M;&QL_FQL````&!A\QL+`?`:&QGP8&```````PL8,&#!FQ@``````.&QL.';<
MS,QV`````#`P,&````````````````P8,#`P,#`8#```````,!@,#`P,#!@P
M`````````&8\_SQF````````````&!A^&!@`````````````````&!@8,```
M````````_@`````````````````````8&````````@8,&#!@P(`````````X
M;,;6UM;&;#@``````!@X>!@8&!@8?@``````?,8&#!@P8,;^``````!\Q@8&
M/`8&QGP```````P</&S,_@P,'@``````_L#`P/P&!L9\```````X8,#`_,;&
MQGP``````/[&!@P8,#`P,```````?,;&QGS&QL9\``````!\QL;&?@8&#'@`
M```````8&````!@8`````````!@8````&!@P```````&#!@P8#`8#`8`````
M`````'X``'X`````````8#`8#`8,&#!@``````!\QL8,&!@`&!@``````'S&
MQM[>WMS`?```````$#ALQL;^QL;&``````#\9F9F?&9F9OP``````#QFPL#`
MP,)F/```````^&QF9F9F9FSX``````#^9F)H>&AB9OX``````/YF8FAX:&!@
M\```````/&;"P,#>QF8Z``````#&QL;&_L;&QL8``````#P8&!@8&!@8/```
M````'@P,#`S,S,QX``````#F9FQL>&QL9N8``````/!@8&!@8&)F_@``````
MQN[^_M;&QL;&``````#&YO;^WL[&QL8``````'S&QL;&QL;&?```````_&9F
M9GQ@8&#P``````!\QL;&QL;6WGP,#@```/QF9F9\;&9FY@``````?,;&8#@,
MQL9\``````!^?EH8&!@8&#P``````,;&QL;&QL;&?```````QL;&QL;&;#@0
M``````#&QL;6UM;^[FP``````,;&;#@X.&S&Q@``````9F9F9CP8&!@\````
M``#^QHP8,&#"QOX``````#PP,#`P,#`P/```````@,#@<#@<#@8"```````\
M#`P,#`P,##P````0.&S&`````````````````````````````/\`,#`8````
M`````````````````'@,?,S,=@``````X&!@>&QF9F9\``````````!\QL#`
MQGP``````!P,##QLS,S,=@``````````?,;^P,9\```````<-C(P>#`P,'@`
M`````````';,S,Q\#,QX````X&!@;'9F9F;F```````8&``X&!@8&#P`````
M``8&``X&!@8&9F8\````X&!@9FQX;&;F```````X&!@8&!@8&#P`````````
M`.S^UM;6Q@``````````W&9F9F9F``````````!\QL;&QGP``````````-QF
M9F9\8&#P````````=LS,S'P,#!X```````#<=F9@8/```````````'S&<!S&
M?```````$#`P_#`P,#8<``````````#,S,S,S'8``````````&9F9F8\&```
M````````QM;6UOYL``````````#&;#@X;,8``````````,;&QL9^!@SX````
M````_LP8,&;^```````.&!@8<!@8&`X``````!@8&!@`&!@8&```````<!@8
M&`X8&!AP``````!VW```````````````````````````````````````````
M````````````````````````````````````````````````````````````
M````````````````````````````````````````````````````````````
M````````````````````````````````````````````````````````````
M````````````````````````````````````````````````````````````
M````````````````````````````````````````````````````````````
M````````````````````````````````````````````````````````````
M````````````````````````````````````````````````````````````
M````````````````````````````````````````````````````````````
M````````````````````````````````````````````````````````````
M````````````````````````````````````````````````````````````
M````````$#ALQL;^QL;.&`X``,9\`````````````````/!D;'APX.)F_@``
M``````#&?,;&?,8``````!ON8&!@8&!B9OX````,&`!\QL9P',;&?`````!\
MQF`X;,;&;#@.QGP``&QL``````````````!L.`!\QL9P',;&?```````?,;&
M8#@,QL9\&'``-AP`?GY:&!@8&#P````,&`#^QHP8,&+&_@```````````'X`
M````````;#@`_L:,&#!BQOX````8&`#^QHP8,&+&_@`````X;&PX````````
M``````````!X#'S,S'8P'```````````````,#`<````.!H>'!@X>%@\````
M``P8,```````````````&^Y@8&!@8&!@\``````,&#``?,9P',9\`````&PX
M````````````````````````````&!AP````;#@`?,9P',9\``````````!\
MQG`<QGP8<`!L.``0,##\,#`V'``````,&#``_LP8,&;^`````#9LV```````
M`````````&PX`/[,&#!F_@``````&!@`_LP8,&;^````#!@`_&9F?&QF9N8`
M```,&``0.&S&_L;&Q@```#AL`!`X;,;^QL;&````QGP`$#ALQO[&QL8`````
MQ@`0.&S&_L;&Q@``````]FQ@8&!@8F;^````#!@`/&;"P,#"9CP``````#QF
MPL#`P,)F/!AP`&PX`#QFPL#`PF8\````#!@`_F9B>&AB9OX``````/YF8FAX
M:&)F_C`<``#&`/YF8GAH8F;^````;#@`_F9B>&AB9OX````,&``\&!@8&!@8
M/````!PV`#P8&!@8&!@\````;#@`^&QF9F9F;/@``````/AL9F;V9F9L^```
M``P8`,;F]O[>SL;&````;#@`QN;V_M[.QL8````,&`!\QL;&QL;&?````#AL
M`'S&QL;&QL9\````-FP`?,;&QL;&QGP`````Q@!\QL;&QL;&?```````````
MQFPX;,8`````;#@`_&9F?&QF9N8````X;#C&QL;&QL;&?`````P8`,;&QL;&
MQL9\````-FP`QL;&QL;&QGP`````Q@#&QL;&QL;&?`````P8`&9F9F8\&!@\
M``````!^?EH8&!@8&#P,.````'C,S,S8S,;&S``````,&#``W'9F8&#P````
M``P8,`!X#'S,S'8`````$#AL`'@,?,S,=@``````QGP`>`Q\S,QV``````#,
M``!X#'S,S'8``````.9L8&!@8&!@\``````,&#``?,;`P,9\``````````!\
MQL#`QGP8<````&PX`'S&P,#&?``````,&#``?,;^P,9\``````````!\QO[`
MQGPP'````,8``'S&_L#&?```````;#@`?,;^P,9\``````P8,``X&!@8&#P`
M````$#AL`#@8&!@8/````&PX`!P,##QLS,QV```````,#'X,/&S,S'8`````
M#!@P`-QF9F9F9@``````;#@`W&9F9F9F``````P8,`!\QL;&QGP`````$#AL
M`'S&QL;&?```````-FP`?,;&QL9\``````#&``!\QL;&QGP`````````&!@`
M?@`8&```````;#@`W'9F8&#P`````#AL.`#,S,S,S'8`````#!@P`,S,S,S,
M=@``````;-@`S,S,S,QV``````#,``#,S,S,S'8`````#!@P`,;&QL9^!@SX
=````$#`P_#`P,#8<##@``!@8````````````````
`
end
