# $FreeBSD: stable/10/share/syscons/fonts/iso09-8x16.fnt 86796 2001-11-22 23:39:06Z ache $
begin 644 iso09-8x16
M````````````````````````````````````````````````````````````
M````````````````````````````````````````````````````````````
M````````````````````````````````````````````````````````````
M````````````````````````````````````````````````````````````
M````````````````````````````````````````````````````````````
M````````````````````````````````````````````````````````````
M````````````````````````````````````````````````````````````
M````````````````````````````````````````````````````````````
M````````````````````````````````````````````````````````````
M````````````````````````````````````````````````````````````
M````````````````````````````````````````````````````````````
M```````````````````````````````````````````````8/#P\&!@8`!@8
M``````!F9F8D``````````````````!L;/YL;&S^;&P`````&!A\QL+`?`8&
MAL9\&!@```````#"Q@P8,&#&A@```````#AL;#AVW,S,S'8``````#`P,&``
M````````````````#!@P,#`P,#`8#````````#`8#`P,#`P,&#``````````
M``!F//\\9@``````````````&!A^&!@````````````````````8&!@P````
M`````````/X````````````````````````8&````````````@8,&#!@P(``
M```````\9L/#V]O#PV8\````````&#AX&!@8&!@8?@```````'S&!@P8,&#`
MQOX```````!\Q@8&/`8&!L9\````````#!P\;,S^#`P,'@```````/[`P,#\
M!@8&QGP````````X8,#`_,;&QL9\````````_L8&!@P8,#`P,````````'S&
MQL9\QL;&QGP```````!\QL;&?@8&!@QX```````````8&````!@8````````
M````&!@````8&#``````````!@P8,&`P&`P&````````````?@``?@``````
M``````!@,!@,!@P8,&````````!\QL8,&!@8`!@8`````````'S&QM[>WMS`
M?````````!`X;,;&_L;&QL8```````#\9F9F?&9F9F;\````````/&;"P,#`
MP,)F/````````/AL9F9F9F9F;/@```````#^9F)H>&A@8F;^````````_F9B
M:'AH8&!@\````````#QFPL#`WL;&9CH```````#&QL;&_L;&QL;&````````
M/!@8&!@8&!@8/````````!X,#`P,#,S,S'@```````#F9F9L>'AL9F;F````
M````\&!@8&!@8&)F_@```````,/G___;P\/#P\,```````#&YO;^WL[&QL;&
M````````?,;&QL;&QL;&?````````/QF9F9\8&!@8/````````!\QL;&QL;&
MUMY\#`X`````_&9F9GQL9F9FY@```````'S&QF`X#`;&QGP```````#_VYD8
M&!@8&!@\````````QL;&QL;&QL;&?````````,/#P\/#P\-F/!@```````##
MP\/#P]O;_V9F````````P\-F/!@8/&;#PP```````,/#PV8\&!@8&#P`````
M``#_PX8,&#!@P</_````````/#`P,#`P,#`P/`````````"`P.!P.!P.!@(`
M```````\#`P,#`P,#`P\`````!`X;,8`````````````````````````````
M````_P``,#`8````````````````````````>`Q\S,S,=@```````.!@8'AL
M9F9F9GP```````````!\QL#`P,9\````````'`P,/&S,S,S,=@``````````
M`'S&_L#`QGP````````X;&1@\&!@8&#P````````````=LS,S,S,?`S,>```
M`.!@8&QV9F9F9N8````````8&``X&!@8&!@\````````!@8`#@8&!@8&!F9F
M/````.!@8&9L>'AL9N8````````X&!@8&!@8&!@\````````````YO_;V]O;
MVP```````````-QF9F9F9F8```````````!\QL;&QL9\````````````W&9F
M9F9F?&!@\````````';,S,S,S'P,#!X```````#<=F9@8&#P````````````
M?,9@.`S&?````````!`P,/PP,#`P-AP```````````#,S,S,S,QV````````
M````P\/#PV8\&````````````,/#P]O;_V8```````````##9CP8/&;#````
M````````QL;&QL;&?@8,^````````/[,&#!@QOX````````.&!@8<!@8&!@.
M````````&!@8&!@8&!@8&````````'`8&!@.&!@8&'````````!VW```````
M````````````````````````````````````````````````````````````
M````````````````````````````````````````````````````````````
M````````````````````````````````````````````````````````````
M````````````````````````````````````````````````````````````
M````````````````````````````````````````````````````````````
M````````````````````````````````````````````````````````````
M````````````````````````````````````````````````````````````
M````````````````````````````````````````````````````````````
M````````````````````````````````````````````````````````````
M````````````````````````````````````````````````````````````
M````````````````````````````````````````````````````````````
M````````````````````````````````````````````````````````````
M`````````````````!@8`!@8&#P\/!@``````!@8?L/`P,##?A@8```````X
M;&1@\&!@8&#F_`````````""QGS&QL;&?,:"``````##9CP8_QC_&!@8````
M````&!@8&``8&!@8&```````?,9@.&S&QFPX#,9\`````,8`````````````
M````````?,:"NJ*BNH+&?```````<!AXR'@`^``````````````````V;-AL
M-@```````````````/X&!@8&````````````````?`````````````!\QH*Z
MJK*J@L9\``````#^````````````````````.&QL.```````````````````
M`!@8?A@8``!^``````!PV#!@R/@`````````````^!@P&-AP````````````
M&#!@``````````````````````!F9F9F9GYC8,```````'_;V]M[&QL;&QL`
M`````````````!@8```````````````````````8#`8\````8.!@8&#P````
M`````````'#8B-AP`/@`````````````````V&PV;-@`````````P,#"QLP8
M,&;.ECX&!@```,#`PL;,&#!@SIL&#!\```#P,'(V[!@P9LZ6/@8&`````#`P
M`#`P8,#&QGP`````8#`8`#ALQL;^QL;&``````P8,``X;,;&_L;&Q@`````0
M.&P`.&S&QO[&QL8``````';<`#ALQL;^QL;&``````#&`!`X;,;&_L;&Q@``
M```X;#@`.&S&QO[&QL8````````^;,S,_LS,S,S.````````/&;"P,#`P,)F
M/!@P```P&`P`_F9@?&!@9OX`````&#!@`/YF8'Q@8&;^`````!`X;`#^9F!\
M8&!F_@``````Q@#^9F!@?&!@9OX`````,!@,`#P8&!@8&!@\``````P8,``\
M&!@8&!@8/``````8/&8`/!@8&!@8&#P``````&8`/!@8&!@8&!@\`````$(\
M`#QFPL#>QL9F.@````!VW`#&YO;^WL[&QL8`````8#`8`'S&QL;&QL9\````
M``P8,`!\QL;&QL;&?``````0.&P`?,;&QL;&QGP`````=MP`?,;&QL;&QL9\
M``````#&`'S&QL;&QL;&?```````````QFPX$#ALQ@```````@9\SL[>UM;V
MYN9\P(```&`P&`#&QL;&QL;&?``````,&#``QL;&QL;&QGP`````$#AL`,;&
MQL;&QL9\``````#&`,;&QL;&QL;&?````````!@`/!@8&!@8&#P```````!\
MQL9@.`P&QL9\&#``````.&S&SMS8S,;6W,"`````8#`8`'@,?,S,S'8`````
M`!@P8`!X#'S,S,QV```````0.&P`>`Q\S,S,=@```````';<`'@,?,S,S'8`
M``````#,``!X#'S,S,QV```````X;#@`>`Q\S,S,=@```````````&X[&W[8
MW'<```````````!\QL#`P,9\&#````!@,!@`?,;^P,#&?```````#!@P`'S&
M_L#`QGP``````!`X;`!\QO[`P,9\````````Q@``?,;^P,#&?```````8#`8
M`#@8&!@8&#P```````8,&``X&!@8&!@\```````8/&8`.!@8&!@8/```````
M`&8``#@8&!@8&#P```````!$.`!VS,S,S,Q\#,QX````=MP`W&9F9F9F9@``
M````8#`8`'S&QL;&QGP``````!@P8`!\QL;&QL9\```````0.&P`?,;&QL;&
M?````````';<`'S&QL;&QGP```````#&``!\QL;&QL9\```````````8&`!^
M`!@8```````````"!GS.WM;VYGS`@````&`P&`#,S,S,S,QV```````8,&``
MS,S,S,S,=@``````,'C,`,S,S,S,S'8```````#,``#,S,S,S,QV````````
M````.!@8&!@8/````````````'S&8#@,QGP8,`````!F9@#N9F9F9F8^!@PX
!````
`
end
